EDH 7916 - I: Enter the tidyverse
…
Because we don’t want to overwrite our original data in memory, we’ll assign (<-) the output to a new object called df_tmp.

## -----------------
## select
## -----------------

## select columns we need and assign to new object
df_tmp <- select(df, stu_id, x1stuedexpct, x1paredexpct, x1region)

## show
df_tmp

# A tibble: 23,503 × 4
   stu_id x1stuedexpct x1paredexpct x1region
    <dbl>        <dbl>        <dbl>    <dbl>
 1  10001            8            6        2
 2  10002           11            6        1
 3  10003           10           10        4
 4  10004           10           10        3
 5  10005            6           10        3
 6  10006           10            8        3
 7  10007            8           11        1
 8  10008            8            6        1
 9  10009           11           11        3
10  10010            8            6        1
# … with 23,493 more rows
…
Now that we’ve corrected our expectation variables, we create a new variable that is the higher of the two (per our initial instructions to choose the higher of the two if both existed).

Using ifelse() again, we can test whether each student’s degree expectation is higher than that of their parent; if true, we’ll put the student’s value into the new variable — if false, we’ll put the parent’s value into the new variable.

## mutate (notice that we use df_tmp now)
df_tmp <- mutate(df_tmp,
                 high_expct = ifelse(x1stuedexpct > x1paredexpct, # test
                                     x1stuedexpct,                # if TRUE
                                     x1paredexpct))               # if FALSE

## show
df_tmp

# A tibble: 23,503 × 5
   stu_id x1stuedexpct x1paredexpct x1region high_expct
    <dbl>        <dbl>        <dbl>    <dbl>      <dbl>
 1  10001            8            6        2          8
 2  10002           NA            6        1         NA
 3  10003           10           10        4         10
 4  10004           10           10        3         10
 5  10005            6           10        3         10
 6  10006           10            8        3         10
 7  10007            8           NA        1         NA
 8  10008            8            6        1          8
 9  10009           NA           NA        3         NA
10  10010            8            6        1          8
# … with 23,493 more rows
…
## correct for NA values
df_tmp <- mutate(df_tmp,
                 ## step 1: compare with student's expectations
                 high_expct = ifelse(is.na(high_expct) & !is.na(x1stuedexpct), 
                                     x1stuedexpct,                
                                     high_expct),
                 ## step 2: compare with parent's expectations
                 high_expct = ifelse(is.na(high_expct) & !is.na(x1paredexpct), 
                                     x1paredexpct,                
                                     high_expct))               

## show
df_tmp

# A tibble: 23,503 × 5
   stu_id x1stuedexpct x1paredexpct x1region high_expct
    <dbl>        <dbl>        <dbl>    <dbl>      <dbl>
 1  10001            8            6        2          8
 2  10002           NA            6        1          6
 3  10003           10           10        4         10
 4  10004           10           10        3         10
 5  10005            6           10        3         10
 6  10006           10            8        3         10
 7  10007            8           NA        1          8
 8  10008            8            6        1          8
 9  10009           NA           NA        3         NA
10  10010            8            6        1          8
# … with 23,493 more rows
…
Since we’re not going to use the missing values (we really can’t, even if we wanted to do so), we’ll drop those observations from our data frame using filter().

An important point about filter() that often trips people up at first: use it to filter in what you want. This is the opposite of the more common usage of filters, which are about removing things (e.g., air filters, water filters, etc).

## filter out missing values
df_tmp <- filter(df_tmp, !is.na(high_expct))

## show
df_tmp

# A tibble: 20,040 × 5
   stu_id x1stuedexpct x1paredexpct x1region high_expct
    <dbl>        <dbl>        <dbl>    <dbl>      <dbl>
 1  10001            8            6        2          8
 2  10002           NA            6        1          6
 3  10003           10           10        4         10
 4  10004           10           10        3         10
 5  10005            6           10        3         10
 6  10006           10            8        3         10
 7  10007            8           NA        1          8
 8  10008            8            6        1          8
 9  10010            8            6        1          8
10  10011            8            6        3          8
# … with 20,030 more rows
…
We’re not missing any census data, which is good. To calculate our average expectations, we need to use the group_by() function. This function allows to set groups and perform other dplyr operations within those groups. Right now, we’ll use it to get our summary.

## get expectations average within region
df_tmp <- group_by(df_tmp, x1region)

## show grouping
df_tmp

# A tibble: 20,040 × 5
# Groups:   x1region [4]
   stu_id x1stuedexpct x1paredexpct x1region high_expct
    <dbl>        <dbl>        <dbl>    <dbl>      <dbl>
 1  10001            8            6        2          8
 2  10002           NA            6        1          6
 3  10003           10           10        4         10
 4  10004           10           10        3         10
 5  10005            6           10        3         10
 6  10006           10            8        3         10
 7  10007            8           NA        1          8
 8  10008            8            6        1          8
 9  10010            8            6        1          8
10  10011            8            6        3          8
# … with 20,030 more rows
…
