I: Enter the tidyverse – EDH 7916
…
Selecting Variables/Columns with select()

Often data sets contain hundreds, thousands, or even tens of thousands of variables, when we are only interested in a handful. Our first tidyverse command select() helps us deal with this, by, as you may have guessed, select()-ing the variables we want

Since we are going to pipe our R commands, we start with our data then pipe it into the select() command

In the select() command, we list out the variables we want

stu_id, x1stuedexpct, x1paredexpct, x1region

Notice: in this (and most tidyverse) command(s) we don’t have to use “quotes” around the variable names. A common error message when you did need to put something in quotes is Error: object <thing you should have "quoted"> not found

df |> select(stu_id, x1stuedexpct, x1paredexpct, x1region)

# A tibble: 23,503 × 4
   stu_id x1stuedexpct x1paredexpct x1region
    <dbl>        <dbl>        <dbl>    <dbl>
 1  10001            8            6        2
 2  10002           11            6        1
 3  10003           10           10        4
 4  10004           10           10        3
 5  10005            6           10        3
 6  10006           10            8        3
 7  10007            8           11        1
 8  10008            8            6        1
 9  10009           11           11        3
10  10010            8            6        1
# ℹ 23,493 more rows
…
Inside mutate() assign our results to x1stuedexpct (which will modify the existing variable)

Modify x1stuedexpct with an ifelse() statement, which remember has 3 parts

statement which is asking “is x1stuedexpct == -8”? - Notice == means “is equal to”, while = means “assign to”. Yes it’s confusing, but you’ll get it over time!

if that statement is true, make it NA

else (if the statement is false) return the original variable x1stuedexpct

Okay, make sense? Let’s see what we just did (look at row 26)

print(df_small, n = 26)

# A tibble: 23,503 × 4
   stu_id x1stuedexpct x1paredexpct x1region
    <dbl>        <dbl>        <dbl>    <dbl>
 1  10001            8            6        2
 2  10002           11            6        1
 3  10003           10           10        4
 4  10004           10           10        3
 5  10005            6           10        3
 6  10006           10            8        3
 7  10007            8           11        1
 8  10008            8            6        1
 9  10009           11           11        3
10  10010            8            6        1
11  10011            8            6        3
12  10012           11           11        2
13  10013            8           10        3
14  10014            2            6        3
15  10015           11           10        3
16  10016            4            6        2
17  10018            6            7        2
18  10019            8           -8        2
19  10020            8            8        4
20  10021            8           11        2
21  10022           10            8        4
22  10024            6            8        2
23  10025            8           -8        4
24  10026            7           10        3
25  10027           11            6        1
26  10028           NA           -8        3
# ℹ 23,477 more rows
…
Then, we can use the %in% operator to ask if that result is any of the numbers in that list

This keeps our code shorter and easier to read

df_small <- df_small |>
  mutate(x1stuedexpct = ifelse(x1stuedexpct %in% c(-8, -9, 11), NA, x1stuedexpct),
         x1paredexpct = ifelse(x1paredexpct %in% c(-8, -9, 11), NA, x1paredexpct))

The code now works just as above, but instead of asking if x1stuedexpct is equal to -8, it asks if it’s in the list of -8, -9, and 11, then does the same for parental expectations!

Let’s view those first 26 rows again to see what we did

print(df_small, n = 26)

# A tibble: 23,503 × 4
   stu_id x1stuedexpct x1paredexpct x1region
    <dbl>        <dbl>        <dbl>    <dbl>
 1  10001            8            6        2
 2  10002           NA            6        1
 3  10003           10           10        4
 4  10004           10           10        3
 5  10005            6           10        3
 6  10006           10            8        3
 7  10007            8           NA        1
 8  10008            8            6        1
 9  10009           NA           NA        3
10  10010            8            6        1
11  10011            8            6        3
12  10012           NA           NA        2
13  10013            8           10        3
14  10014            2            6        3
15  10015           NA           10        3
16  10016            4            6        2
17  10018            6            7        2
18  10019            8           NA        2
19  10020            8            8        4
20  10021            8           NA        2
21  10022           10            8        4
22  10024            6            8        2
23  10025            8           NA        4
24  10026            7           10        3
25  10027           NA            6        1
26  10028           NA           NA        3
# ℹ 23,477 more rows
…
Sloppy Mistake 1 (doesn’t matter here)

I was a little sloppy with the statement piece, I just asked if x1stuedexpct was greater than x1paredexpct or not

If I was being more careful, I might have said “greater than or equal to”

Why doesn’t this matter in this context, and when might it matter?

Sloppy Mistake 2 (does matter here)

Now let’s check our data frame to see the one that does matter

print(df_small, n = 26)

# A tibble: 23,503 × 5
   stu_id x1stuedexpct x1paredexpct x1region high_exp
    <dbl>        <dbl>        <dbl>    <dbl>    <dbl>
 1  10001            8            6        2        8
 2  10002           NA            6        1       NA
 3  10003           10           10        4       10
 4  10004           10           10        3       10
 5  10005            6           10        3       10
 6  10006           10            8        3       10
 7  10007            8           NA        1       NA
 8  10008            8            6        1        8
 9  10009           NA           NA        3       NA
10  10010            8            6        1        8
11  10011            8            6        3        8
12  10012           NA           NA        2       NA
13  10013            8           10        3       10
14  10014            2            6        3        6
15  10015           NA           10        3       NA
16  10016            4            6        2        6
17  10018            6            7        2        7
18  10019            8           NA        2       NA
19  10020            8            8        4        8
20  10021            8           NA        2       NA
21  10022           10            8        4       10
22  10024            6            8        2        8
23  10025            8           NA        4       NA
24  10026            7           10        3       10
25  10027           NA            6        1       NA
26  10028           NA           NA        3       NA
# ℹ 23,477 more rows
…
R doesn’t let you just say high_exp == NA -! is really helpful tool, which can be used to negate or invert a command

!is.na(x1stuedexpct) just returns the opposite of is.na(x1stuedexpct) so it tells us that the column is not NA -& can be useful inside conditional statements, as it means both must be TRUE (FYI: | means or)

Used together, we can now ensure we have as few NAs as possible in the data (there will still be some when both student and parent were NA)

df_small <- df_small |>
  mutate(high_exp = ifelse(is.na(high_exp) & !is.na(x1stuedexpct), x1stuedexpct, high_exp),
         high_exp = ifelse(is.na(high_exp) & !is.na(x1paredexpct), x1paredexpct, high_exp))

Let’s print this one last time to check our work

print(df_small, n = 26)

# A tibble: 23,503 × 5
   stu_id x1stuedexpct x1paredexpct x1region high_exp
    <dbl>        <dbl>        <dbl>    <dbl>    <dbl>
 1  10001            8            6        2        8
 2  10002           NA            6        1        6
 3  10003           10           10        4       10
 4  10004           10           10        3       10
 5  10005            6           10        3       10
 6  10006           10            8        3       10
 7  10007            8           NA        1        8
 8  10008            8            6        1        8
 9  10009           NA           NA        3       NA
10  10010            8            6        1        8
11  10011            8            6        3        8
12  10012           NA           NA        2       NA
13  10013            8           10        3       10
14  10014            2            6        3        6
15  10015           NA           10        3       10
16  10016            4            6        2        6
17  10018            6            7        2        7
18  10019            8           NA        2        8
19  10020            8            8        4        8
20  10021            8           NA        2        8
21  10022           10            8        4       10
22  10024            6            8        2        8
23  10025            8           NA        4        8
24  10026            7           10        3       10
25  10027           NA            6        1        6
26  10028           NA           NA        3       NA
# ℹ 23,477 more rows
…
