EDH 7916 - II: Appending, joining, & reshaping data
…
Rows: 24 Columns: 5
── Column specification ────────────────────────────────────────────────────────
Delimiter: ","
chr (1): school
dbl (4): year, math, read, science

ℹ Use `spec()` to retrieve the full column specification for this data.
ℹ Specify the column types or set `show_col_types = FALSE` to quiet this message.

Looking at the data, we see that it’s similar to what we’ve seen above, with additional schools.

## show
df

# A tibble: 24 × 5
   school        year  math  read science
   <chr>        <dbl> <dbl> <dbl>   <dbl>
 1 Bend Gate     1980   515   281     808
 2 Bend Gate     1981   503   312     814
 3 Bend Gate     1982   514   316     816
 4 Bend Gate     1983   491   276     793
 5 Bend Gate     1984   502   310     788
 6 Bend Gate     1985   488   280     789
 7 East Heights  1980   501   318     782
 8 East Heights  1981   487   323     813
 9 East Heights  1982   496   294     818
10 East Heights  1983   497   306     795
# ℹ 14 more rows
…
Observations in both X and Y (001 and 002, above), will have data for the columns that were separately in X and Y before. Those in X only (003), will have missing values in the new columns that came from Y because they didn’t exist there. Observations in Y but not X (004) are dropped entirely.

Back to our example…

Since we want to join a smaller aggregated data frame, df_sum, to the original data frame, df, we’ll use a left_join(). The join functions will try to guess the joining variable (and tell you what it picked) if you don’t supply one, but we’ll specify one to be clear.

## start with data frame...
df_joined <- df %>%
    ## pipe into left_join to join with df_sum using "year" as key
    left_join(df_sum, by = "year")

## show
df_joined

# A tibble: 24 × 8
   school        year  math  read science math_m read_m science_m
   <chr>        <dbl> <dbl> <dbl>   <dbl>  <dbl>  <dbl>     <dbl>
 1 Bend Gate     1980   515   281     808   507    295.      798.
 2 Bend Gate     1981   503   312     814   496.   293.      788.
 3 Bend Gate     1982   514   316     816   506    302.      802.
 4 Bend Gate     1983   491   276     793   500    293.      794.
 5 Bend Gate     1984   502   310     788   490    300.      792.
 6 Bend Gate     1985   488   280     789   500.   290.      794.
 7 East Heights  1980   501   318     782   507    295.      798.
 8 East Heights  1981   487   323     813   496.   293.      788.
 9 East Heights  1982   496   294     818   506    302.      802.
10 East Heights  1983   497   306     795   500    293.      794.
# ℹ 14 more rows
…
## wide to long
df_long <- df %>%
    ## cols: current test columns
    ## names_to: where "math", "read", and "science" will go
    ## values_to: where the values in cols will go
    pivot_longer(cols = c("math","read","science"),
                 names_to = "test",
                 values_to = "score")

## show
df_long

# A tibble: 72 × 4
   school     year test    score
   <chr>     <dbl> <chr>   <dbl>
 1 Bend Gate  1980 math      515
 2 Bend Gate  1980 read      281
 3 Bend Gate  1980 science   808
 4 Bend Gate  1981 math      503
 5 Bend Gate  1981 read      312
 6 Bend Gate  1981 science   814
 7 Bend Gate  1982 math      514
 8 Bend Gate  1982 read      316
 9 Bend Gate  1982 science   816
10 Bend Gate  1983 math      491
# ℹ 62 more rows
…
## ---------------------------
## process
## ---------------------------

## long to wide
df_wide <- df_long %>%
    ## names_from: values in this column will become new column names
    ## values_from: values in this column will become values in new cols
    pivot_wider(names_from = "test",
                values_from = "score")

## show
df_wide

# A tibble: 24 × 5
   school        year  math  read science
   <chr>        <dbl> <dbl> <dbl>   <dbl>
 1 Bend Gate     1980   515   281     808
 2 Bend Gate     1981   503   312     814
 3 Bend Gate     1982   514   316     816
 4 Bend Gate     1983   491   276     793
 5 Bend Gate     1984   502   310     788
 6 Bend Gate     1985   488   280     789
 7 East Heights  1980   501   318     782
 8 East Heights  1981   487   323     813
 9 East Heights  1982   496   294     818
10 East Heights  1983   497   306     795
# ℹ 14 more rows
…
## ---------------------------
## process
## ---------------------------

## wide to long
df_long <- df %>%
    ## NB: contains() looks for "19" in name: if there, it adds it to cols
    pivot_longer(cols = contains("19"),
                 names_to = "test_year",
                 values_to = "score")

## show
df_long

# A tibble: 72 × 3
   school    test_year    score
   <chr>     <chr>        <dbl>
 1 Bend Gate math_1980      515
 2 Bend Gate read_1980      281
 3 Bend Gate science_1980   808
 4 Bend Gate math_1981      503
 5 Bend Gate read_1981      312
 6 Bend Gate science_1981   814
 7 Bend Gate math_1982      514
 8 Bend Gate read_1982      316
 9 Bend Gate science_1982   816
10 Bend Gate math_1983      491
# ℹ 62 more rows
…
sep: the name of the character that splits the values in col, so R knows how to fill each of the into columns ("_")

## separate test_year into two columns, filling appropriately
df_long_fix <- df_long %>%
    ## col: the column to split
    ## into: names of resulting splits
    ## sep: the split point --> left to "test", right to "year"
    separate(col = "test_year",
             into = c("test", "year"),
             sep = "_")

## show
df_long_fix

# A tibble: 72 × 4
   school    test    year  score
   <chr>     <chr>   <chr> <dbl>
 1 Bend Gate math    1980    515
 2 Bend Gate read    1980    281
 3 Bend Gate science 1980    808
 4 Bend Gate math    1981    503
 5 Bend Gate read    1981    312
 6 Bend Gate science 1981    814
 7 Bend Gate math    1982    514
 8 Bend Gate read    1982    316
 9 Bend Gate science 1982    816
10 Bend Gate math    1983    491
# ℹ 62 more rows
…
