II: Appending, joining, & reshaping data – EDH 7916
…
adding school-level average test scores to each student’s row.

With a panel data set (observations across time), we might want within-year averages added to each unit-by-time period row.

Let’s do the second, adding within-year across school average test scores to each school-by-year observation.

## read in all_schools data
df <- read_csv(file.path("data", "sch-test", "all-schools.csv"))

Looking at the data, we see that it’s similar to what we’ve seen above, with additional schools.

## show
df

# A tibble: 24 × 5
   school        year  math  read science
   <chr>        <dbl> <dbl> <dbl>   <dbl>
 1 Bend Gate     1980   515   281     808
 2 Bend Gate     1981   503   312     814
 3 Bend Gate     1982   514   316     816
 4 Bend Gate     1983   491   276     793
 5 Bend Gate     1984   502   310     788
 6 Bend Gate     1985   488   280     789
 7 East Heights  1980   501   318     782
 8 East Heights  1981   487   323     813
 9 East Heights  1982   496   294     818
10 East Heights  1983   497   306     795
# ℹ 14 more rows
…
Back to our example…

Since we want to join a smaller aggregated data frame, df_sum, to the original data frame, df, we’ll use a left_join().

The join functions will try to guess the joining variable (and tell you what it picked) if you don’t supply one, but we’ll specify one to be clear.

## start with data frame...
df_joined <- df |>
    ## pipe into left_join to join with df_sum using "year" as key
    left_join(df_sum, by = "year")

## show
df_joined

# A tibble: 24 × 8
   school        year  math  read science math_m read_m science_m
   <chr>        <dbl> <dbl> <dbl>   <dbl>  <dbl>  <dbl>     <dbl>
 1 Bend Gate     1980   515   281     808   507    295.      798.
 2 Bend Gate     1981   503   312     814   496.   293.      788.
 3 Bend Gate     1982   514   316     816   506    302.      802.
 4 Bend Gate     1983   491   276     793   500    293.      794.
 5 Bend Gate     1984   502   310     788   490    300.      792.
 6 Bend Gate     1985   488   280     789   500.   290.      794.
 7 East Heights  1980   501   318     782   507    295.      798.
 8 East Heights  1981   487   323     813   496.   293.      788.
 9 East Heights  1982   496   294     818   506    302.      802.
10 East Heights  1983   497   306     795   500    293.      794.
# ℹ 14 more rows
…
This makes things simpler 99% of the time (no one wants to be writing nested code)

But in this case it takes a second to get your head around

By default, the pipe |> will always go into the first “argument” of a function, which in this case, is x

We can always specify where it should go with an _ underscore

## Therefore 
left_join(x = df,
          y = df_sum,
          by = "year")

# A tibble: 24 × 8
   school        year  math  read science math_m read_m science_m
   <chr>        <dbl> <dbl> <dbl>   <dbl>  <dbl>  <dbl>     <dbl>
 1 Bend Gate     1980   515   281     808   507    295.      798.
 2 Bend Gate     1981   503   312     814   496.   293.      788.
 3 Bend Gate     1982   514   316     816   506    302.      802.
 4 Bend Gate     1983   491   276     793   500    293.      794.
 5 Bend Gate     1984   502   310     788   490    300.      792.
 6 Bend Gate     1985   488   280     789   500.   290.      794.
 7 East Heights  1980   501   318     782   507    295.      798.
 8 East Heights  1981   487   323     813   496.   293.      788.
 9 East Heights  1982   496   294     818   506    302.      802.
10 East Heights  1983   497   306     795   500    293.      794.
# ℹ 14 more rows

## Is exactly the same as
df |>
  left_join(x = _, ## If it helps to visualize, the _ is where the |> will go
            y = df_sum,
            by = "year")

# A tibble: 24 × 8
   school        year  math  read science math_m read_m science_m
   <chr>        <dbl> <dbl> <dbl>   <dbl>  <dbl>  <dbl>     <dbl>
 1 Bend Gate     1980   515   281     808   507    295.      798.
 2 Bend Gate     1981   503   312     814   496.   293.      788.
 3 Bend Gate     1982   514   316     816   506    302.      802.
 4 Bend Gate     1983   491   276     793   500    293.      794.
 5 Bend Gate     1984   502   310     788   490    300.      792.
 6 Bend Gate     1985   488   280     789   500.   290.      794.
 7 East Heights  1980   501   318     782   507    295.      798.
 8 East Heights  1981   487   323     813   496.   293.      788.
 9 East Heights  1982   496   294     818   506    302.      802.
10 East Heights  1983   497   306     795   500    293.      794.
# ℹ 14 more rows

## Is exactly the same as
df |>
  left_join(df_sum,
            by = "year")

# A tibble: 24 × 8
   school        year  math  read science math_m read_m science_m
   <chr>        <dbl> <dbl> <dbl>   <dbl>  <dbl>  <dbl>     <dbl>
 1 Bend Gate     1980   515   281     808   507    295.      798.
 2 Bend Gate     1981   503   312     814   496.   293.      788.
 3 Bend Gate     1982   514   316     816   506    302.      802.
 4 Bend Gate     1983   491   276     793   500    293.      794.
 5 Bend Gate     1984   502   310     788   490    300.      792.
 6 Bend Gate     1985   488   280     789   500.   290.      794.
 7 East Heights  1980   501   318     782   507    295.      798.
 8 East Heights  1981   487   323     813   496.   293.      788.
 9 East Heights  1982   496   294     818   506    302.      802.
10 East Heights  1983   497   306     795   500    293.      794.
# ℹ 14 more rows
…
The short answer is that you sometimes need one format and sometimes the other due to the demands of the analysis you want to run, the figure you want to plot, or the table you want to make.

Note: Data in the wild are often some combination of these two types: wide-ish or long-ish. For an example, see our all-schools.csv data below, which is wide in some variables (test), but long in others (year). The point of defining long vs wide is not to have a testable definition, but rather to have a framework for thinking about how your data are structured and if that structure will work for your data analysis needs.

Example: wide –> long

To start, we’ll go back to the all_schools.csv file.

## reading again just to be sure we have the original data
df <- read_csv(file.path("data", "sch-test", "all-schools.csv"))

## print to see what the data structure looks like
print(df)

# A tibble: 24 × 5
   school        year  math  read science
   <chr>        <dbl> <dbl> <dbl>   <dbl>
 1 Bend Gate     1980   515   281     808
 2 Bend Gate     1981   503   312     814
 3 Bend Gate     1982   514   316     816
 4 Bend Gate     1983   491   276     793
 5 Bend Gate     1984   502   310     788
 6 Bend Gate     1985   488   280     789
 7 East Heights  1980   501   318     782
 8 East Heights  1981   487   323     813
 9 East Heights  1982   496   294     818
10 East Heights  1983   497   306     795
# ℹ 14 more rows
…
Since they are test types, we’ll call our names_to column "test" and our values_to column "score".

## wide to long
df_long <- df |>
    ## cols: current test columns
    ## names_to: where "math", "read", and "science" will go
    ## values_to: where the values in cols will go
    pivot_longer(cols = c("math","read","science"),
                 names_to = "test",
                 values_to = "score")

## show
df_long

# A tibble: 72 × 4
   school     year test    score
   <chr>     <dbl> <chr>   <dbl>
 1 Bend Gate  1980 math      515
 2 Bend Gate  1980 read      281
 3 Bend Gate  1980 science   808
 4 Bend Gate  1981 math      503
 5 Bend Gate  1981 read      312
 6 Bend Gate  1981 science   814
 7 Bend Gate  1982 math      514
 8 Bend Gate  1982 read      316
 9 Bend Gate  1982 science   816
10 Bend Gate  1983 math      491
# ℹ 62 more rows
…
names_from: the name of the column that contains the values which will become new column names

values_from: the name of the column that contains the values associated with the values in names_from column; these will go into the new columns.

## long to wide
df_wide <- df_long |>
    ## names_from: values in this column will become new column names
    ## values_from: values in this column will become values in new cols
    pivot_wider(names_from = "test",
                values_from = "score")

## show
df_wide

# A tibble: 24 × 5
   school        year  math  read science
   <chr>        <dbl> <dbl> <dbl>   <dbl>
 1 Bend Gate     1980   515   281     808
 2 Bend Gate     1981   503   312     814
 3 Bend Gate     1982   514   316     816
 4 Bend Gate     1983   491   276     793
 5 Bend Gate     1984   502   310     788
 6 Bend Gate     1985   488   280     789
 7 East Heights  1980   501   318     782
 8 East Heights  1981   487   323     813
 9 East Heights  1982   496   294     818
10 East Heights  1983   497   306     795
# ℹ 14 more rows
…
I.e., this will put everything before the underscore in the first column test and everything after into the second column year

## wide to long
df_long <- df |>
    ## NB: contains() looks for "19" in name: if there, it adds it to cols
    pivot_longer(cols = contains("19"),
                 names_to = c("test", "year"),
                 names_sep = "_",
                 values_to = "score")

## show
df_long

# A tibble: 72 × 4
   school    test    year  score
   <chr>     <chr>   <chr> <dbl>
 1 Bend Gate math    1980    515
 2 Bend Gate read    1980    281
 3 Bend Gate science 1980    808
 4 Bend Gate math    1981    503
 5 Bend Gate read    1981    312
 6 Bend Gate science 1981    814
 7 Bend Gate math    1982    514
 8 Bend Gate read    1982    316
 9 Bend Gate science 1982    816
10 Bend Gate math    1983    491
# ℹ 62 more rows
…
Let’s say we want to explore difference in international student enrollment at the undergraduate vs graduate level and if that varies by region of the US

For this, we are going to use two IPEDS data sets HD2022 and EFFY2022

Note: These data sets are not in your class repository (intentionally), so we have to go and download them from the IPEDS Data Center

data_info <- read_csv("data/hd2022.csv")
data_enroll <- read_csv("data/effy2022.csv")

Let’s take a look at these data one by one

data_info

# A tibble: 6,256 × 73
   UNITID INSTNM     IALIAS ADDR  CITY  STABBR ZIP    FIPS OBEREG CHFNM CHFTITLE
    <dbl> <chr>      <chr>  <chr> <chr> <chr>  <chr> <dbl>  <dbl> <chr> <chr>   
 1 100654 Alabama A… AAMU   4900… Norm… AL     35762     1      5 Dr. … Preside…
 2 100663 Universit… UAB    Admi… Birm… AL     3529…     1      5 Ray … Preside…
 3 100690 Amridge U… South… 1200… Mont… AL     3611…     1      5 Mich… Preside…
 4 100706 Universit… UAH  … 301 … Hunt… AL     35899     1      5 Chuc… Preside…
 5 100724 Alabama S… <NA>   915 … Mont… AL     3610…     1      5 Quin… Preside…
 6 100733 Universit… <NA>   500 … Tusc… AL     35401     1      5 Fini… Chancel…
 7 100751 The Unive… <NA>   739 … Tusc… AL     3548…     1      5 Dr. … Preside…
 8 100760 Central A… <NA>   1675… Alex… AL     35010     1      5 Jeff… Preside…
 9 100812 Athens St… <NA>   300 … Athe… AL     35611     1      5 Dr. … Interim…
10 100830 Auburn Un… AUM||… 7440… Mont… AL     3611…     1      5 Carl… Chancel…
# ℹ 6,246 more rows
# ℹ 62 more variables: GENTELE <dbl>, EIN <chr>, UEIS <chr>, OPEID <chr>,
#   OPEFLAG <dbl>, WEBADDR <chr>, ADMINURL <chr>, FAIDURL <chr>, APPLURL <chr>,
#   NPRICURL <chr>, VETURL <chr>, ATHURL <chr>, DISAURL <chr>, SECTOR <dbl>,
#   ICLEVEL <dbl>, CONTROL <dbl>, HLOFFER <dbl>, UGOFFER <dbl>, GROFFER <dbl>,
#   HDEGOFR1 <dbl>, DEGGRANT <dbl>, HBCU <dbl>, HOSPITAL <dbl>, MEDICAL <dbl>,
#   TRIBAL <dbl>, LOCALE <dbl>, OPENPUBL <dbl>, ACT <chr>, NEWID <dbl>, …

Okay, this looks simple enough, we see one row per institution followed by a bunch of descriptive variables

Let’s look at our enrollment data

data_enroll

# A tibble: 117,521 × 72
   UNITID EFFYALEV EFFYLEV LSTUDY XEYTOTLT EFYTOTLT XEYTOTLM EFYTOTLM XEYTOTLW
    <dbl>    <dbl>   <dbl>  <dbl> <chr>       <dbl> <chr>       <dbl> <chr>   
 1 100654        1       1    999 R            6681 R            2666 R       
 2 100654        2       2      1 R            5663 R            2337 R       
 3 100654        3      -2      1 R            5621 R            2323 R       
 4 100654        4      -2      1 R            1680 R             722 R       
 5 100654        5      -2      1 R            3941 R            1601 R       
 6 100654       11      -2      1 R              42 R              14 R       
 7 100654       12       4      3 R            1018 R             329 R       
 8 100654       19      -2      1 R             361 R             177 R       
 9 100654       20      -2      1 R            3580 R            1424 R       
10 100654       21      -2    999 R            5460 R            2169 R       
# ℹ 117,511 more rows
# ℹ 63 more variables: EFYTOTLW <dbl>, XEFYAIAT <chr>, EFYAIANT <dbl>,
#   XEFYAIAM <chr>, EFYAIANM <dbl>, XEFYAIAW <chr>, EFYAIANW <dbl>,
#   XEFYASIT <chr>, EFYASIAT <dbl>, XEFYASIM <chr>, EFYASIAM <dbl>,
#   XEFYASIW <chr>, EFYASIAW <dbl>, XEFYBKAT <chr>, EFYBKAAT <dbl>,
#   XEFYBKAM <chr>, EFYBKAAM <dbl>, XEFYBKAW <chr>, EFYBKAAW <dbl>,
#   XEFYHIST <chr>, EFYHISPT <dbl>, XEFYHISM <chr>, EFYHISPM <dbl>, …
…
Think back to our research question, what’s the ratio of international students at the undergraduate vs graduate level?

Based on the code book, what do you think we need to do now?

EFFYALEV is probably more detail than we need for our question, EFFYLEV has everything we need

To make our life simpler, let’s reduce our data down a little to just the variables we want with select()

data_enroll <- data_enroll |>
  select(UNITID, EFFYLEV, EFYTOTLT, EFYNRALT)

data_enroll

# A tibble: 117,521 × 4
   UNITID EFFYLEV EFYTOTLT EFYNRALT
    <dbl>   <dbl>    <dbl>    <dbl>
 1 100654       1     6681      104
 2 100654       2     5663       53
 3 100654      -2     5621       53
 4 100654      -2     1680       12
 5 100654      -2     3941       41
 6 100654      -2       42        0
 7 100654       4     1018       51
 8 100654      -2      361       10
 9 100654      -2     3580       31
10 100654      -2     5460       95
# ℹ 117,511 more rows

Next, let’s reduce our data down to just the two rows containing undergraduate and graduate enrollments

data_enroll <- data_enroll |>
  filter(EFFYLEV %in% c(2,4))
  
data_enroll

# A tibble: 7,817 × 4
   UNITID EFFYLEV EFYTOTLT EFYNRALT
    <dbl>   <dbl>    <dbl>    <dbl>
 1 100654       2     5663       53
 2 100654       4     1018       51
 3 100663       2    15360      415
 4 100663       4    10603     1047
 5 100690       2      351        0
 6 100690       4      565        0
 7 100706       2     8536      187
 8 100706       4     2606      234
 9 100724       2     3899       60
10 100724       4      526        8
# ℹ 7,807 more rows

Okay, this is starting to look more manageable, right?

What do we need to do next to be able to compare across levels of study or institutions?

data_enroll <- data_enroll |>
  mutate(perc_intl = EFYNRALT/EFYTOTLT*100) |>
  select(-EFYTOTLT, -EFYNRALT) # - in select means drop this variable

data_enroll

# A tibble: 7,817 × 3
   UNITID EFFYLEV perc_intl
    <dbl>   <dbl>     <dbl>
 1 100654       2     0.936
 2 100654       4     5.01 
 3 100663       2     2.70 
 4 100663       4     9.87 
 5 100690       2     0    
 6 100690       4     0    
 7 100706       2     2.19 
 8 100706       4     8.98 
 9 100724       2     1.54 
10 100724       4     1.52 
# ℹ 7,807 more rows

Now, we want to find the difference between the undergraduate and graduate enrollment levels, which should be pretty simple math right? We just need to subtract the percentages from each other

Can we easily do that right now? If not, what do we need to do?

data_enroll <- data_enroll |>
  pivot_wider(names_from = EFFYLEV,
              values_from = perc_intl,
              names_prefix = "perc_intl_")

data_enroll

# A tibble: 6,036 × 3
   UNITID perc_intl_2 perc_intl_4
    <dbl>       <dbl>       <dbl>
 1 100654      0.936         5.01
 2 100663      2.70          9.87
 3 100690      0             0   
 4 100706      2.19          8.98
 5 100724      1.54          1.52
 6 100751      1.62         10.7 
 7 100760      0.406        NA   
 8 100812      0.0577        0   
 9 100830      4.32         37.5 
10 100858      4.42         17.7 
# ℹ 6,026 more rows

Now is our calculation much easier to make?

data_enroll <- data_enroll |>
  mutate(perc_intl_diff = perc_intl_2 - perc_intl_4)

data_enroll

# A tibble: 6,036 × 4
   UNITID perc_intl_2 perc_intl_4 perc_intl_diff
    <dbl>       <dbl>       <dbl>          <dbl>
 1 100654      0.936         5.01        -4.07  
 2 100663      2.70          9.87        -7.17  
 3 100690      0             0            0     
 4 100706      2.19          8.98        -6.79  
 5 100724      1.54          1.52         0.0179
 6 100751      1.62         10.7         -9.04  
 7 100760      0.406        NA           NA     
 8 100812      0.0577        0            0.0577
 9 100830      4.32         37.5        -33.2   
10 100858      4.42         17.7        -13.3   
# ℹ 6,026 more rows
…
Lastly, let’s see if this trend varies by private vs public institutions

What do we need to do to see that?

data_info <- data_info |>
  select(UNITID, CONTROL)

data_joined <- left_join(data_enroll, data_info, by = "UNITID")

data_joined

# A tibble: 6,036 × 5
   UNITID perc_intl_2 perc_intl_4 perc_intl_diff CONTROL
    <dbl>       <dbl>       <dbl>          <dbl>   <dbl>
 1 100654      0.936         5.01        -4.07         1
 2 100663      2.70          9.87        -7.17         1
 3 100690      0             0            0            2
 4 100706      2.19          8.98        -6.79         1
 5 100724      1.54          1.52         0.0179       1
 6 100751      1.62         10.7         -9.04         1
 7 100760      0.406        NA           NA            1
 8 100812      0.0577        0            0.0577       1
 9 100830      4.32         37.5        -33.2          1
10 100858      4.42         17.7        -13.3          1
# ℹ 6,026 more rows
…
