I: Basics – EDH 7916
…
e.g., changes in test scores over time

A line graph is often a good choice.

Since our hsls-small data is cross-sectional, we’ll shift to using our school test score data data_ts from Data Wrangling II

Quick question: What does cross-sectional mean? What is the opposite of it?

As a reminder, here’s what the schools data looks like

## show test score data
data_ts

# A tibble: 24 × 5
   school        year  math  read science
   <chr>        <dbl> <dbl> <dbl>   <dbl>
 1 Bend Gate     1980   515   281     808
 2 Bend Gate     1981   503   312     814
 3 Bend Gate     1982   514   316     816
 4 Bend Gate     1983   491   276     793
 5 Bend Gate     1984   502   310     788
 6 Bend Gate     1985   488   280     789
 7 East Heights  1980   501   318     782
 8 East Heights  1981   487   323     813
 9 East Heights  1982   496   294     818
10 East Heights  1983   497   306     795
# ℹ 14 more rows
…
To make this comparison, we first need to reshape our data, which is currently long in year, to be long in test, too.

As we saw in Data Wrangling II, we’ll use pivot_longer() to place each test type in its own column (test) with the score next to it.

## reshape data long
data_ts_long <- data_ts |>
  pivot_longer(cols = c("math","read","science"), # cols to pivot long
               names_to = "test",                 # where col names go
               values_to = "score")               # where col values go

## show
data_ts_long

# A tibble: 72 × 4
   school     year test    score
   <chr>     <dbl> <chr>   <dbl>
 1 Bend Gate  1980 math      515
 2 Bend Gate  1980 read      281
 3 Bend Gate  1980 science   808
 4 Bend Gate  1981 math      503
 5 Bend Gate  1981 read      312
 6 Bend Gate  1981 science   814
 7 Bend Gate  1982 math      514
 8 Bend Gate  1982 read      316
 9 Bend Gate  1982 science   816
10 Bend Gate  1983 math      491
# ℹ 62 more rows
…
To get the graph we want, we are going to do something very similar, but instead of using the mean of the score, we are going to take the score in 1980

Therefore, every subsequent year will show the change since 1980, and since it’s standardized, all test scores will be on the same scale

data_ts_long_std <- data_ts_long |>
  group_by(test, school) |>
  arrange(year) |> 
  mutate(score_year_one = first(score),
         ## note that we're using score_year_one instead of mean(score)
         score_std_sch = (score - score_year_one) / sd(score)) |>
  ungroup()

print(data_ts_long_std, n = 13)

# A tibble: 72 × 6
   school        year test    score score_year_one score_std_sch
   <chr>        <dbl> <chr>   <dbl>          <dbl>         <dbl>
 1 Bend Gate     1980 math      515            515          0   
 2 Bend Gate     1980 read      281            281          0   
 3 Bend Gate     1980 science   808            808          0   
 4 East Heights  1980 math      501            501          0   
 5 East Heights  1980 read      318            318          0   
 6 East Heights  1980 science   782            782          0   
 7 Niagara       1980 math      514            514          0   
 8 Niagara       1980 read      292            292          0   
 9 Niagara       1980 science   787            787          0   
10 Spottsville   1980 math      498            498          0   
11 Spottsville   1980 read      288            288          0   
12 Spottsville   1980 science   813            813          0   
13 Bend Gate     1981 math      503            515         -1.07
# ℹ 59 more rows
…
