EDH 7916 - I: Basics
…
To be clear, these semi-automated lines of best fit should not be used to draw final conclusions about the relationships in your data. You will want to do much more analytic work to make sure any correlations you observe aren’t simply spurious and that fitted lines are telling you something useful. That said, fitted lines via ggplot2 can be useful when first trying to understand your data or to more clearly show observed trends.

Line graph

When you want to show changes in one variable as a function of another variable, e.g., changes in test scores over time, then a line graph is often a good choice. Since our hsls_small data is cross-sectional, we’ll shift to using our school test score data. Remember that the test score data show three sets of test scores (math, science, and reading) for four schools over a period of six years. This data frame is long in year, but wide in test type. It looks like this:

## show test score data
df_ts

# A tibble: 24 × 5
   school        year  math  read science
   <chr>        <dbl> <dbl> <dbl>   <dbl>
 1 Bend Gate     1980   515   281     808
 2 Bend Gate     1981   503   312     814
 3 Bend Gate     1982   514   316     816
 4 Bend Gate     1983   491   276     793
 5 Bend Gate     1984   502   310     788
 6 Bend Gate     1985   488   280     789
 7 East Heights  1980   501   318     782
 8 East Heights  1981   487   323     813
 9 East Heights  1982   496   294     818
10 East Heights  1983   497   306     795
# ℹ 14 more rows
…
Is this faceted plot better than the color line plot before it? To my eyes, it’s a little clearer, but not so much so that I couldn’t be convinced to use the first one. Whether you use the first or the second would largely depend on your specific data and presentation needs.

Faceting has a clearer advantage, however, when you want to include the fourth level of comparison: (1) scores across (2) time across (3) schools from (4) different tests. To make this comparison, we first need to reshape our data, which is only long in year, to be long in test, too. As we’ve already seen in a past lesson, we’ll use pivot_longer() to place each test type in its own column (test) with the score next to it.

## reshape data long
df_ts_long <- df_ts |>
    pivot_longer(cols = c("math","read","science"), # cols to pivot long
                 names_to = "test",                 # where col names go
                 values_to = "score")               # where col values go

## show
df_ts_long

# A tibble: 72 × 4
   school     year test    score
   <chr>     <dbl> <chr>   <dbl>
 1 Bend Gate  1980 math      515
 2 Bend Gate  1980 read      281
 3 Bend Gate  1980 science   808
 4 Bend Gate  1981 math      503
 5 Bend Gate  1981 read      312
 6 Bend Gate  1981 science   814
 7 Bend Gate  1982 math      514
 8 Bend Gate  1982 read      316
 9 Bend Gate  1982 science   816
10 Bend Gate  1983 math      491
# ℹ 62 more rows
…
