EDH 7916 - Reproducable Reports with Quarto
…
This logic is really useful to keep long streams of code out of your Quarto document

You also probably have lot’s of code already written in an .R script, and this is much easier than copy and pasting it all

Quick Exercise

source() 04-wrangle-ii.R

print out the data object we made called df_long

print(df_long)

# A tibble: 72 × 4
   school    test    year  score
   <chr>     <chr>   <chr> <dbl>
 1 Bend Gate math    1980    515
 2 Bend Gate read    1980    281
 3 Bend Gate science 1980    808
 4 Bend Gate math    1981    503
 5 Bend Gate read    1981    312
 6 Bend Gate science 1981    814
 7 Bend Gate math    1982    514
 8 Bend Gate read    1982    316
 9 Bend Gate science 1982    816
10 Bend Gate math    1983    491
# ℹ 62 more rows
…
