III: Working with strings & dates – EDH 7916
…
ℹ Use `spec()` to retrieve the full column specification for this data.
ℹ Specify the column types or set `show_col_types = FALSE` to quiet this message.

Finding: str_detect()

So far, we’ve filtered data using dplyr’s filter() verb. When matching a string, we have used == (or != for negative match). For example, if we wanted to limit our data to only those institutions in Florida, we could filter using the stabbr column:

## filter using state abbreviation (not saving, just viewing)
df |>
    filter(stabbr == "FL")

# A tibble: 316 × 59
   unitid instnm    addr  city  stabbr zip    fips obereg chfnm chftitle gentele
    <dbl> <chr>     <chr> <chr> <chr>  <chr> <dbl>  <dbl> <chr> <chr>      <dbl>
 1 132268 Wyotech-… 470 … Ormo… FL     32174    12      5 Stev… Preside… 3.86e12
 2 132338 The Art … 1799… Fort… FL     3331…    12      5 Char… Preside… 9.54e13
 3 132374 Atlantic… 4700… Coco… FL     3306…    12      5 Robe… Director 7.54e 9
 4 132408 The Bapt… 5400… Grac… FL     32440    12      5 Thom… Preside… 8.50e 9
 5 132471 Barry Un… 1130… Miami FL     3316…    12      5 Sist… Preside… 8.01e 9
 6 132523 Gooding … 615 … Pana… FL     32401    12      5 Dr. … CRNA Ph… 8.51e 9
 7 132602 Bethune-… 640 … Dayt… FL     3211…    12      5 Dr T… Preside… 3.86e 9
 8 132657 Lynn Uni… 3601… Boca… FL     3343…    12      5 Kevi… Preside… 5.61e 9
 9 132666 Bradento… 5505… Brad… FL     34209    12      5 A. P… CEO      9.42e 9
10 132675 Bradford… 609 … Star… FL     32091    12      5 Rand… Director 9.05e 9
# ℹ 306 more rows
# ℹ 48 more variables: ein <chr>, opeid <chr>, opeflag <dbl>, webaddr <chr>,
#   adminurl <chr>, faidurl <chr>, applurl <chr>, sector <dbl>, iclevel <dbl>,
#   control <dbl>, hloffer <dbl>, ugoffer <dbl>, groffer <dbl>, fpoffer <dbl>,
#   hdegoffr <dbl>, deggrant <dbl>, hbcu <dbl>, hospital <dbl>, medical <dbl>,
#   tribal <dbl>, locale <dbl>, openpubl <dbl>, act <chr>, newid <dbl>,
#   deathyr <dbl>, closedat <chr>, cyactive <dbl>, postsec <dbl>, …

This works well because the stabbr column, even though it uses strings, is regular. But what happens when the strings aren’t so regular? For example, let’s look the different titles chief college administrators take.

## see first few rows of distinct chief titles
df |>
    distinct(chftitle)

# A tibble: 556 × 1
   chftitle          
   <chr>             
 1 Commandant        
 2 President         
 3 Chancellor        
 4 Interim President 
 5 CEO               
 6 Acting President  
 7 Director          
 8 President/CEO     
 9 Interim Chancellor
10 President/COO     
# ℹ 546 more rows

We find over 500 unique titles. Just looking at the first 10 rows, we see that some titles are pretty similar — President vs. CEO vs. President/CEO — but not exactly the same. Let’s look again, but this time get counts of each distinct title and arrange from most common to least.

## return the most common titles
df |>
    ## get counts of each type
    count(chftitle) |>
    ## arrange in descending order so we see most popular at top
    arrange(desc(n))

# A tibble: 556 × 2
   chftitle               n
   <chr>              <int>
 1 President           3840
 2 Director             560
 3 Chancellor           265
 4 Executive Director   209
 5 Owner                164
 6 Campus President     116
 7 Superintendent       105
 8 CEO                   90
 9 <NA>                  85
10 Interim President     75
# ℹ 546 more rows
…
[1]  TRUE FALSE  TRUE

We can use str_detect() inside filter() to select only certain rows in our data frame. In our case, we want only those observations in which the title "President" occurs in the chftitle column. Because we’re only detecting, as long as "President" occurs anywhere in the title, we’ll get that row back.

## how many use some form of the title president?
df |>
    ## still starting with our count
    count(chftitle) |>
    ## ...but keeping only those titles that contain "President"
    filter(str_detect(chftitle, "President")) |>
    ## arranging as before
    arrange(desc(n))

# A tibble: 173 × 2
   chftitle              n
   <chr>             <int>
 1 President          3840
 2 Campus President    116
 3 Interim President    75
 4 President/COO        47
 5 President/CEO        46
 6 School President     31
 7 Vice President       29
 8 President and CEO    17
 9 College President    15
10 President & CEO      14
# ℹ 163 more rows
…
Regular expressions (aka regex) are strings that use a special syntax to create patterns that can be used to match other strings. They are very useful when you need to match strings that have some general form, but may differ in specifics.

We already used this technique in the a prior lesson when we matched columns in the all_schools_wide.csv with contains("19") so that we could pivot_longer(). Instead of naming all the columns specifically, we recognized that each column took the form of <test>_19<YY>. This is a type of regular expression.

In the tidyverse some of the stringr and tidyselect helper functions abstract-away some of the nitty-gritty behind regular expressions. Knowing a little about regular expression syntax, particularly how it is used in R, can go a long way.

In our first case, we can match strings that have a capital P President or lowercase p president using square brackets ([]). If we want either “P” or “p”, then we can use the regex, [Pp], in place of the first character: "[Pp]resident". This will match either "President" or "president".

## solution 1: look for either P or p
df |>
    count(chftitle) |>
    filter(str_detect(chftitle, "[Pp]resident")) |>
    arrange(desc(n))

# A tibble: 175 × 2
   chftitle              n
   <chr>             <int>
 1 President          3840
 2 Campus President    116
 3 Interim President    75
 4 President/COO        47
 5 President/CEO        46
 6 School President     31
 7 Vice President       29
 8 President and CEO    17
 9 College President    15
10 President & CEO      14
# ℹ 165 more rows
Though we don’t see the new observations in the abbreviated output, we note that the number of rows has increased by two. This means that there are at least two title formats in which "president" is lowercase and that we weren’t picking up when we only used the uppercase version of "President" before.

2. Put everything in the same case and match with that case

Another solution, which is probably much easier in this particular case, is to set all potential values in chftitle to the same case and then match using that case. In many situations, this is preferable since you don’t need to guess cases up front.

We won’t change the values in chftitle permanently — only while filtering. To compare apples to apples (rather than "Apples" to "apples"), we’ll wrap our column name with the function str_to_lower(), which will make character lowercase, and match using lowercase "president".

## solution 2: make everything lowercase so that case doesn't matter
df |>
    count(chftitle) |>
    filter(str_detect(str_to_lower(chftitle), "president")) |>
    arrange(desc(n))

# A tibble: 177 × 2
   chftitle              n
   <chr>             <int>
 1 President          3840
 2 Campus President    116
 3 Interim President    75
 4 President/COO        47
 5 President/CEO        46
 6 School President     31
 7 Vice President       29
 8 President and CEO    17
 9 College President    15
10 President & CEO      14
# ℹ 167 more rows
…
In general, I find it’s a good idea to try a solution like the second one before a more complicated one like the first. But because every problem is different, so too are the solutions. You may find yourself using a combination of the two.

Not-so-quick exercise

Another chief title that was high on the list was “Owner.” How many institutions have an “Owner” as their chief administrator? Of these, how many are private, for-profit institutions (control == 3)? How many have the word “Beauty” in their name?

Replace using string position: str_sub()

In addition to filtering data, we sometimes need to create new variables from pieces of exiting variables. For example, let’s look at the zip code values that are included in the file.

## show first few zip code values
df |>
    select(unitid, zip)

# A tibble: 7,052 × 2
   unitid zip       
    <dbl> <chr>     
 1 100636 36112-6613
 2 100654 35762     
 3 100663 35294-0110
 4 100690 36117-3553
 5 100706 35899     
 6 100724 36101-0271
 7 100733 35401     
 8 100751 35487-0166
 9 100760 35010     
10 100812 35611     
# ℹ 7,042 more rows
We can see that we have both regular 5 digit zip codes as well as those that include the extra 4 digits (ZIP+4). Let’s say we don’t need those last four digits for our analysis (particularly because not every school uses them anyway). Our task is to create a new column that pulls out only the main part of the zip code. It is has to work both for zip values that include the additional hyphen and 4 digits as well as those that only have the primary 5 digits to begin with.

One solution in this case is to take advantage of the fact that zip codes — minus the sometimes extra 4 digits — should be regular: 5 digits. If want the sub-part of a string and that sub-part is always in the same spot, we can use the function, str_sub(), which takes a string or column name first, and has arguments for the starting and ending character that mark the sub-string of interest.

In our case, we want the first 5 digits so we should start == 1 and end == 5:

## pull out first 5 digits of zip code
df <- df |>
    mutate(zip5 = str_sub(zip, start = 1, end = 5))

## show (use select() to subset so we can set new columns)
df |>
    select(unitid, zip, zip5)

# A tibble: 7,052 × 3
   unitid zip        zip5 
    <dbl> <chr>      <chr>
 1 100636 36112-6613 36112
 2 100654 35762      35762
 3 100663 35294-0110 35294
 4 100690 36117-3553 36117
 5 100706 35899      35899
 6 100724 36101-0271 36101
 7 100733 35401      35401
 8 100751 35487-0166 35487
 9 100760 35010      35010
10 100812 35611      35611
# ℹ 7,042 more rows
…
So what’s happening? If given a zip code that is "32605", the regex pattern will collect each digit — "3" "2" "6" "0" "5" — into the first subexpression because it never sees a hyphen. That first subexpression, "\\1", is returned: "32605". That’s what we want.

If given "32605-1234", it will collect the first 5 digits in the first subexpression, but will stop adding characters there when it sees the hyphen. From then on out, it adds everything it sees the second subexpression: "-" "1" "2" "3" "4". But because str_replace() only returns the first subexpression, we still get the same answer: "32605". This is what we want.

Let’s try it on the data.

## drop last four digits of extended zip code if they exist
df <- df |>
    mutate(zip5_v2 = str_replace(zip, "([0-9]+)(-[0-9]+)?", "\\1"))

## show (use select() to subset so we can set new columns)
df |>
    select(unitid, zip, zip5, zip5_v2)

# A tibble: 7,052 × 4
   unitid zip        zip5  zip5_v2
    <dbl> <chr>      <chr> <chr>  
 1 100636 36112-6613 36112 36112  
 2 100654 35762      35762 35762  
 3 100663 35294-0110 35294 35294  
 4 100690 36117-3553 36117 36117  
 5 100706 35899      35899 35899  
 6 100724 36101-0271 36101 36101  
 7 100733 35401      35401 35401  
 8 100751 35487-0166 35487 35487  
 9 100760 35010      35010 35010  
10 100812 35611      35611 35611  
# ℹ 7,042 more rows
…
This involves knowing how many days are in each month (something I can never remember), if that year was a leap year, etc.

In our IPEDS data see which institutions closed in 2007 and 2008 in the closedat column

-2 means the institution didn’t close in this period, so let’s drop them

## subset to schools who closed during this period
df <- df |>
  filter(closedat != -2) |>
  select(unitid, instnm, closedat)

df

# A tibble: 83 × 3
   unitid instnm                                                  closedat
    <dbl> <chr>                                                   <chr>   
 1 103440 Sheldon Jackson College                                 6/29/07 
 2 104522 DeVoe College of Beauty                                 3/29/08 
 3 105242 Mundus Institute                                        Sep-07  
 4 105880 Long Technical College-East Valley                      3/31/07 
 5 119711 New College of California                               Jan-08  
 6 136996 Ross Medical Education Center                           7/31/07 
 7 137625 Suncoast II the Tampa Bay School of Massage Therapy LLC 5/31/08 
 8 141583 Hawaii Business College                                 Sep-07  
 9 150127 Ball Memorial Hospital School of Radiologic Technology  May-07  
10 160144 Pat Goins Shreveport Beauty School                      3/1/08  
# ℹ 73 more rows
…
## create a new clean_date column 
df <- df |>
    mutate(clean_date = parse_date_time(closedat,
                                        orders = "mdy"))

Warning: There was 1 warning in `mutate()`.
ℹ In argument: `clean_date = parse_date_time(closedat, orders = "mdy")`.
Caused by warning:
!  35 failed to parse.

## show
df

# A tibble: 83 × 4
   unitid instnm                                    closedat clean_date         
    <dbl> <chr>                                     <chr>    <dttm>             
 1 103440 Sheldon Jackson College                   6/29/07  2007-06-29 00:00:00
 2 104522 DeVoe College of Beauty                   3/29/08  2008-03-29 00:00:00
 3 105242 Mundus Institute                          Sep-07   NA                 
 4 105880 Long Technical College-East Valley        3/31/07  2007-03-31 00:00:00
 5 119711 New College of California                 Jan-08   NA                 
 6 136996 Ross Medical Education Center             7/31/07  2007-07-31 00:00:00
 7 137625 Suncoast II the Tampa Bay School of Mass… 5/31/08  2008-05-31 00:00:00
 8 141583 Hawaii Business College                   Sep-07   NA                 
 9 150127 Ball Memorial Hospital School of Radiolo… May-07   NA                 
10 160144 Pat Goins Shreveport Beauty School        3/1/08   2008-03-01 00:00:00
# ℹ 73 more rows
…
## Try adding another date format
df <- df |>
    mutate(clean_date = parse_date_time(closedat,
                                        orders = c("mdy", "my")))

Warning: There was 1 warning in `mutate()`.
ℹ In argument: `clean_date = parse_date_time(closedat, orders = c("mdy",
  "my"))`.
Caused by warning:
!  7 failed to parse.

## show
df

# A tibble: 83 × 4
   unitid instnm                                    closedat clean_date         
    <dbl> <chr>                                     <chr>    <dttm>             
 1 103440 Sheldon Jackson College                   6/29/07  2007-06-29 00:00:00
 2 104522 DeVoe College of Beauty                   3/29/08  2008-03-29 00:00:00
 3 105242 Mundus Institute                          Sep-07   2007-09-01 00:00:00
 4 105880 Long Technical College-East Valley        3/31/07  2007-03-31 00:00:00
 5 119711 New College of California                 Jan-08   2008-01-01 00:00:00
 6 136996 Ross Medical Education Center             7/31/07  2007-07-31 00:00:00
 7 137625 Suncoast II the Tampa Bay School of Mass… 5/31/08  2008-05-31 00:00:00
 8 141583 Hawaii Business College                   Sep-07   2007-09-01 00:00:00
 9 150127 Ball Memorial Hospital School of Radiolo… May-07   2007-05-01 00:00:00
10 160144 Pat Goins Shreveport Beauty School        3/1/08   2008-03-01 00:00:00
# ℹ 73 more rows
…
Find the school with the most recent closure date

Comparing to Reference Dates

Or, lets say we want to see how many schools closed before Christmas Day 2007

We can use parse_date_time() again to store December 25th 2007 as a date time object christmas_07

Then we can just filter schools whose date is less than that

christmas_07 <- parse_date_time("Dec 25 2007", "mdy")

df |> filter(clean_date < christmas_07)

# A tibble: 60 × 4
   unitid instnm                                    closedat clean_date         
    <dbl> <chr>                                     <chr>    <dttm>             
 1 103440 Sheldon Jackson College                   6/29/07  2007-06-29 00:00:00
 2 105242 Mundus Institute                          Sep-07   2007-09-01 00:00:00
 3 105880 Long Technical College-East Valley        3/31/07  2007-03-31 00:00:00
 4 136996 Ross Medical Education Center             7/31/07  2007-07-31 00:00:00
 5 141583 Hawaii Business College                   Sep-07   2007-09-01 00:00:00
 6 150127 Ball Memorial Hospital School of Radiolo… May-07   2007-05-01 00:00:00
 7 161624 Accutech Career Institute                 Sep-07   2007-09-01 00:00:00
 8 170824 Marquette General Hospital                Aug-07   2007-08-01 00:00:00
 9 180124 College of Coiffure Art Ltd               6/25/07  2007-06-25 00:00:00
10 186849 Harrison Career Institute-Vineland        Sep-07   2007-09-01 00:00:00
# ℹ 50 more rows
…
