EDH 7916 - IV: Tidyverse Tricks & SQL
…
Finding if_any() Issues

Although compliance is a federal requirement, completeness of reporting remains a struggle when using IPEDS data

From the snapshots of the data we have seen so far, it seems that there’s a good number of $0 reports for these values

Let’s try and get a data frame containing only institutions that reported $0 for one of these spending categories

df_0 <- df_18_clean |>
  filter(if_any(everything(), ~ . == 0)) ## h/t https://stackoverflow.com/questions/69585261/dplyr-if-any-and-numeric-filtering

print(df_0)

# A tibble: 4,803 × 4
   UNITID inst_spend rsch_spend serv_spend
    <dbl>      <dbl>      <dbl>      <dbl>
 1 100733          0          0          0
 2 100760    8740330          0    3605430
 3 100812   17101084          0    2918417
 4 101028    6298586          0    2062946
 5 101143    7532616          0    3094312
 6 101161   23308825          0    7205781
 7 101240   20593662          0    7278193
 8 101286   17872473          0    4563448
 9 101295   20945006          0    6225596
10 101301    5373481          0    3216811
# ℹ 4,793 more rows
…
