EDH 7916 - Bringing It All Together feat. Basic Models
…
There are functions such as summary() that are great at pulling out the most commonly needed information without having to go manually digging through the model object, but sometimes, it can be useful to know it’s there

Another great function is predict() which extracts estimated values of the outcome variable based on the predictor variables (some other models use fitted() for the same purpose)

For those more familiar with stats, you’ll know predicted values are often compared against the true values to see how strong the model is

To start, let’s save a full set of predictions to a new columns in our data frame

data <- data |>
  mutate(prediction = predict(regression))

data

# A tibble: 16,429 × 9
   stu_id x1sex x1race x1txmtscor x1paredu   x1ses x1poverty185 x1paredexpct
   <fct>  <fct> <fct>       <dbl> <fct>      <dbl> <fct>               <dbl>
 1 10001  1     8            59.4 5         1.56   0                       6
 2 10002  2     8            47.7 3        -0.370  1                       6
 3 10003  2     3            64.2 7         1.27   0                      10
 4 10004  2     8            49.3 4         0.550  0                      10
 5 10005  1     8            62.6 4         0.150  0                      10
 6 10006  2     8            58.1 3         1.06   0                       8
 7 10007  2     8            49.5 2        -0.43   0                      11
 8 10008  1     8            54.6 7         1.51   0                       6
 9 10009  1     8            53.2 2        -0.310  0                      11
10 10010  2     8            63.8 3         0.0451 0                       6
# ℹ 16,419 more rows
# ℹ 1 more variable: prediction <dbl>
…
