EDH 7916 - Extra: Ben’s Mapping Lesson
…
A choropleth map is just a map that uses color to show differences across areas. Probably the most common choropleth maps people see are during an election to show winners by political party in different precincts or states. For our example, we’ll show differences in Bachelor’s degree attainment rates for 25 to 44 year-olds from 2005 to 2019 across the states. First, we’ll read in our data, which come from the U.S. Census’s American Community Survey.

## ---------------------------
## BA attainment 2005-2019
## ---------------------------

## read in BA attainment (25-44yo) data
df_ba <- read_csv(file.path("data", "geo", "ba_25_44.csv"),
                  show_col_types = FALSE)

## show top of data
df_ba

# A tibble: 780 × 5
   stfips stabbr stname   year bapct
    <dbl> <chr>  <chr>   <dbl> <dbl>
 1      1 AL     Alabama  2005  23.5
 2      1 AL     Alabama  2006  22.6
 3      1 AL     Alabama  2007  23.6
 4      1 AL     Alabama  2008  24.1
 5      1 AL     Alabama  2009  24.6
 6      1 AL     Alabama  2010  23.8
 7      1 AL     Alabama  2011  24.7
 8      1 AL     Alabama  2012  26.2
 9      1 AL     Alabama  2013  25  
10      1 AL     Alabama  2014  25.7
# … with 770 more rows
…
