IV: Web Scraping – EDH 7916
…
Fixed! Now we bind together with our high school completers total. Because we want to make a time period line graph, we’ll also convert the years to a date format. We’ll use ymd from the lubridate library. Since we only have years, we’ll include the argument truncated = 2L, which means that we have an incomplete date (no month or day).

NB Since we dropped blank elements in each vector separately, it’s important to check that all the data line up properly now that we’ve bound them together. If we wanted to be safer, we could have bound the data first, then dropped the rows with double missing values.

## put in data frame
df <- bind_cols(years = years, total = tot) %>%
  mutate(years = ymd(years, truncated = 2L))

## show
df

# A tibble: 57 × 2
   years      total
   <date>     <int>
 1 1960-01-01  1679
 2 1961-01-01  1763
 3 1962-01-01  1838
 4 1963-01-01  1741
 5 1964-01-01  2145
 6 1965-01-01  2659
 7 1966-01-01  2612
 8 1967-01-01  2525
 9 1968-01-01  2606
10 1969-01-01  2842
# ℹ 47 more rows
…
## show
tab

# A tibble: 57 × 25
    year hs_comp_tot hs_comp_tot_se hs_comp_m hs_comp_m_se hs_comp_f
   <dbl>       <dbl>          <dbl>     <dbl>        <dbl>     <dbl>
 1  1960        1679           44.5       756         32.3       923
 2  1961        1763           46.7       790         33.7       973
 3  1962        1838           44.3       872         32         966
 4  1963        1741           44.9       794         32.6       947
 5  1964        2145           43.6       997         32.3      1148
 6  1965        2659           48.5      1254         35.7      1405
 7  1966        2612           45.7      1207         34.4      1405
 8  1967        2525           38.5      1142         28.9      1383
 9  1968        2606           38        1184         28.7      1422
10  1969        2842           36.6      1352         27.3      1490
# ℹ 47 more rows
# ℹ 19 more variables: hs_comp_f_se <dbl>, enr_pct <dbl>, enr_pct_se <dbl>,
#   enr_pct_2 <dbl>, enr_pct_2_se <dbl>, enr_pct_4 <dbl>, enr_pct_4_se <dbl>,
#   enr_pct_m <dbl>, enr_pct_m_se <dbl>, enr_pct_2_m <dbl>,
#   enr_pct_2_m_se <dbl>, enr_pct_4_m <dbl>, enr_pct_4_m_se <dbl>,
#   enr_pct_f <dbl>, enr_pct_f_se <dbl>, enr_pct_2_f <dbl>,
#   enr_pct_2_f_se <dbl>, enr_pct_4_f <dbl>, enr_pct_4_f_se <dbl>
…
## show
df

# A tibble: 684 × 4
    year group       estimate    se
   <dbl> <chr>          <dbl> <dbl>
 1  1960 hs_comp_tot   1679   44.5 
 2  1960 hs_comp_m      756   32.3 
 3  1960 hs_comp_f      923   30.1 
 4  1960 enr_pct         45.1  2.16
 5  1960 enr_pct_2       NA   NA   
 6  1960 enr_pct_4       NA   NA   
 7  1960 enr_pct_m       54    3.23
 8  1960 enr_pct_2_m     NA   NA   
 9  1960 enr_pct_4_m     NA   NA   
10  1960 enr_pct_f       37.9  2.85
# ℹ 674 more rows
…
Let’s look at overall college enrollment percentages for recent graduates over time. Because our data are nicely formatted, it’s easy to subset the full table to data to only those estimates we need as well as generate 95% confidence intervals.

## adjust data for specific plot
plot_df <- df %>%
  filter(group %in% c("enr_pct", "enr_pct_m", "enr_pct_f")) %>%
  mutate(hi = estimate + se * qnorm(.975),
         lo = estimate - se * qnorm(.975),
         year = ymd(as.character(year), truncated = 2L),
         group = ifelse(group == "enr_pct_f", "Women",
                        ifelse(group == "enr_pct_m", "Men", "All")))

## show
plot_df

# A tibble: 171 × 6
   year       group estimate    se    hi    lo
   <date>     <chr>    <dbl> <dbl> <dbl> <dbl>
 1 1960-01-01 All       45.1  2.16  49.3  40.9
 2 1960-01-01 Men       54    3.23  60.3  47.7
 3 1960-01-01 Women     37.9  2.85  43.5  32.3
 4 1961-01-01 All       48    2.12  52.2  43.8
 5 1961-01-01 Men       56.3  3.14  62.5  50.1
 6 1961-01-01 Women     41.3  2.81  46.8  35.8
 7 1962-01-01 All       49    2.08  53.1  44.9
 8 1962-01-01 Men       55    3     60.9  49.1
 9 1962-01-01 Women     43.5  2.84  49.1  37.9
10 1963-01-01 All       45    2.12  49.2  40.8
# ℹ 161 more rows
…
